<svg width="14" height="14" viewBox="0 0 14 14" fill="none" xmlns="http://www.w3.org/2000/svg">
<path fill-rule="evenodd" clip-rule="evenodd" d="M4.22916 5.83333C4.22916 4.30305 5.4697 3.0625 7 3.0625C8.53025 3.0625 9.77083 4.30305 9.77083 5.83333C9.77083 7.36365 8.53025 8.60417 7 8.60417C5.4697 8.60417 4.22916 7.36365 4.22916 5.83333ZM7 3.9375C5.95297 3.9375 5.10416 4.78629 5.10416 5.83333C5.10416 6.88036 5.95297 7.72917 7 7.72917C8.04702 7.72917 8.89583 6.88036 8.89583 5.83333C8.89583 4.78629 8.04702 3.9375 7 3.9375Z" fill="white"/>
<path fill-rule="evenodd" clip-rule="evenodd" d="M2.05588 5.16633C2.26258 2.65881 4.358 0.729004 6.87401 0.729004H7.12601C9.64204 0.729004 11.7374 2.65881 11.9441 5.16633C12.0552 6.51334 11.6391 7.85086 10.7835 8.89719L7.98759 12.3166C7.47717 12.9408 6.52284 12.9408 6.01242 12.3166L3.21648 8.89719C2.36093 7.85086 1.94485 6.51334 2.05588 5.16633ZM6.87401 1.604C4.81338 1.604 3.0972 3.18453 2.92793 5.23822C2.83551 6.35928 3.18181 7.47245 3.89386 8.34331L6.68979 11.7627C6.85015 11.9588 7.14986 11.9588 7.31022 11.7627L10.1061 8.34331C10.8182 7.47245 11.1645 6.35928 11.0721 5.23822C10.9028 3.18453 9.18663 1.604 7.12601 1.604H6.87401Z" fill="white"/>
</svg>
